{  
   "web":{  
      "client_id":"44837716627-7v29nihp5sn6fc648jre820vt6h6iv88.apps.googleusercontent.com",
      "project_id":"habituate-55f37",
      "auth_uri":"https://accounts.google.com/o/oauth2/auth?access_type=offline",
      "token_uri":"https://oauth2.googleapis.com/token",
      "auth_provider_x509_cert_url":"https://www.googleapis.com/oauth2/v1/certs",
      "client_secret":"HNqJWvwde863Q-IHiwYxFpYe",
      "access_type":"offline",
      "redirect_uris":[  
         "https://habituate-55f37.firebaseapp.com/__/auth/handler",
         "http://localhost:8080"
      ],
      "javascript_origins":[  
         "http://localhost",
         "http://localhost:5000",
         "http://localhost:8080",
         "https://habituate-55f37.firebaseapp.com"
      ]
   }
}